Курсова робота по економетриці на тему: Дослідження впливу різних факторів на банкрутство компаній
…
У сучасному світі економічна стійкість компаній є одним із найважливіших факторів успішного функціонування на ринку. Проблема банкрутства є серйозним викликом для бізнесу та має потенційно негативний вплив на економіку в цілому. Тому дослідження впливу різних факторів на банкрутство компаній стає актуальною та значущою темою в галузі економетрики.

Метою даної курсової роботи є проведення дослідження та аналіз впливу різних факторів на ризик банкрутства компаній. Застосовуючи методи економетрики, ми намагатимемося встановити статистичні зв’язки між різними економічними показниками та ймовірністю банкрутства, а також виявити ключові фактори, що впливають на цей процес.

У рамках роботи будуть розглянуті різні аспекти, такі як фінансові показники, економічне середовище, управлінські рішення та інші фактори, які можуть впливати на стан компаній і їхню здатність виживати на ринку. Також будуть використані статистичні методи для моделювання ймовірності банкрутства і оцінки впливу окремих факторів.

Результати даного дослідження можуть мати практичне значення для підприємців, менеджерів, інвесторів та інших зацікавлених сторін. Розуміння факторів, що спричиняють банкрутство, допоможе компаніям уникнути фінансових ризиків.

Пояснення змінних у датасеті та підготовка данних

Підключаємо бібліотеки для роботи та читаємо файл з даними

data

# A tibble: 6,819 × 96
   Bankrupt. ROA.C..before.interest.and.depreciation.be…¹ ROA.A..before.intere…²
       <dbl>                                        <dbl>                  <dbl>
 1         1                                        0.371                  0.424
 2         1                                        0.464                  0.538
 3         1                                        0.426                  0.499
 4         1                                        0.400                  0.451
 5         1                                        0.465                  0.538
 6         1                                        0.389                  0.415
 7         0                                        0.391                  0.446
 8         0                                        0.508                  0.571
 9         0                                        0.489                  0.545
10         0                                        0.496                  0.551
# ℹ 6,809 more rows
# ℹ abbreviated names:
#   ¹​ROA.C..before.interest.and.depreciation.before.interest,
#   ²​ROA.A..before.interest.and...after.tax
# ℹ 93 more variables: ROA.B..before.interest.and.depreciation.after.tax <dbl>,
#   Operating.Gross.Margin <dbl>, Realized.Sales.Gross.Margin <dbl>,
#   Operating.Profit.Rate <dbl>, Pre.tax.net.Interest.Rate <dbl>, …
…
Проте мова програмування R надає нам чудову функцію lm(), яка дозваляє уникнути створення моделі за МНК по кроково, а функція summary() виводить додаткову інформаю про модель, у тому числі оцінку коефіцієнтів

Підготовка вибірки

Спочатку треба визначити залежні та незалежні змінні. Залежна змінна, яку ми пояснюємо або прогнозуємо, є “Bankrupt.”, тому можна вважати, що вона є залежною, а всі інші змінні є незалежними. Далі, потрібно сформувати підвибірку, що включатиме дані про рівень людського розвитку та всі інші незалежні змінні. Це можна зробити за допомогою функції “slice_sample(n = …)”, яка дозволяє отримати випадкову підвибірку даних.

MLR <- data 
MLR

# A tibble: 6,819 × 96
   Bankrupt. ROA.C..before.interest.and.depreciation.be…¹ ROA.A..before.intere…²
       <dbl>                                        <dbl>                  <dbl>
 1         1                                        0.371                  0.424
 2         1                                        0.464                  0.538
 3         1                                        0.426                  0.499
 4         1                                        0.400                  0.451
 5         1                                        0.465                  0.538
 6         1                                        0.389                  0.415
 7         0                                        0.391                  0.446
 8         0                                        0.508                  0.571
 9         0                                        0.489                  0.545
10         0                                        0.496                  0.551
# ℹ 6,809 more rows
# ℹ abbreviated names:
#   ¹​ROA.C..before.interest.and.depreciation.before.interest,
#   ²​ROA.A..before.interest.and...after.tax
# ℹ 93 more variables: ROA.B..before.interest.and.depreciation.after.tax <dbl>,
#   Operating.Gross.Margin <dbl>, Realized.Sales.Gross.Margin <dbl>,
#   Operating.Profit.Rate <dbl>, Pre.tax.net.Interest.Rate <dbl>, …
…
